\relax 
\citation{giesbrecht2009part,moore2014fast}
\citation{collins2002discriminative,toutanova2003feature,loftsson2013tagging}
\citation{hajivc2009semi,sogaard2011semisupervised}
\citation{alipasandi2013classification,adeli1989perceptron}
\citation{knerr1990single}
\newlabel{introduction}{{1}{1}{Introduction}{}{}}
\newlabel{fig:labelledText}{{1}{1}{Labelled Text}{}{}}
\newlabel{methods}{{2}{1}{Methods}{}{}}
\newlabel{Perceptron Algorithm}{{2.1}{1}{Perceptron Algorithm}{}{}}
\citation{bhattacharyya2013network}
\newlabel{fig:perceptron}{{2}{2}{Single vs Multi labelled Perceptron}{}{}}
\newlabel{Decision Tree Algorithm}{{2.2}{2}{Decision Tree Algorithm}{}{}}
\newlabel{fig:decisionTree}{{3}{2}{A simple Decision Tree}{}{}}
\newlabel{fig:MI-IG}{{4}{2}{Mutual Information vs Information gain}{}{}}
\newlabel{Feature set}{{2.3}{2}{Feature set}{}{}}
\citation{pradhan-EtAl:2011}
\citation{BioCreativeII:2008}
\citation{BioCreativeI:2005}
\newlabel{New Features added}{{2.4}{3}{New Features added for Gene/Protein NER task}{}{}}
\newlabel{Training procedure}{{3}{3}{Training procedure}{}{}}
\newlabel{data}{{4}{3}{Data}{}{}}
\newlabel{tab:data}{{1}{3}{Overview of the number of tokens and sentences for each of the data sets}{}{}}
\newlabel{experimentsAndResults}{{5}{3}{Experimental Set-ups and Results}{}{}}
\newlabel{performancePerceptron}{{5.1}{3}{Performance of Perceptron}{}{}}
\newlabel{fig:performancePerceptron}{{5}{4}{Comparison F$_1$ scores using the standard perceptron training and 100 runs of the randomized perceptron training for both tasks}{}{}}
\newlabel{compPerceptronDTs}{{5.2}{4}{Comparison of Perceptron and Decision Trees}{}{}}
\citation{Freund:1999}
\citation{collins2002discriminative}
\citation{k2008unsupervised}
\citation{loftsson2013tagging}
\citation{schmid1994probabilistic}
\bibstyle{plainnat}
\bibdata{references/bibliography}
\bibcite{adeli1989perceptron}{{1}{1989}{{Adeli and Yeh}}{{}}}
\newlabel{tab:comparisonPerceptronDTs}{{2}{5}{Comparison of the performance on the test data (in F$_1$) of perceptron and decision trees for the two tasks}{}{}}
\newlabel{featureAblation}{{5.3}{5}{Feature Ablation}{}{}}
\newlabel{tab:featureAblation}{{3}{5}{Results (difference in F$_1$) for the feature ablation tests for both tasks ($t_{-1}$ and $t_{+1}$ denote the previous and next token, $c_1$ the first character of the token and $w_1$ the first token of the sentence)}{}{}}
\newlabel{conclusion}{{6}{5}{Conclusion}{}{}}
\bibcite{alipasandi2013classification}{{2}{2013}{{Alipasandi et~al.}}{{Alipasandi, Ghaffari, Alibeyglu, et~al.}}}
\bibcite{bhattacharyya2013network}{{3}{2013}{{Bhattacharyya and Kalita}}{{}}}
\bibcite{collins2002discriminative}{{4}{2002}{{Collins}}{{}}}
\bibcite{Freund:1999}{{5}{1999}{{Freund and Schapire}}{{}}}
\bibcite{giesbrecht2009part}{{6}{2009}{{Giesbrecht and Evert}}{{}}}
\bibcite{hajivc2009semi}{{7}{2009}{{Haji{\v {c}} et~al.}}{{Haji{\v {c}}, Raab, Spousta, et~al.}}}
\bibcite{knerr1990single}{{8}{1990}{{Knerr et~al.}}{{Knerr, Personnaz, and Dreyfus}}}
\bibcite{loftsson2013tagging}{{9}{2013}{{Loftsson and {\"O}stling}}{{}}}
\bibcite{moore2014fast}{{10}{2014}{{Moore}}{{}}}
\bibcite{pradhan-EtAl:2011}{{11}{2011}{{Pradhan et~al.}}{{Pradhan, Ramshaw, Marcus, Palmer, Weischedel, and Xue}}}
\bibcite{schmid1994probabilistic}{{12}{1994}{{Schmid}}{{}}}
\bibcite{BioCreativeII:2008}{{13}{2008}{{Smith et~al.}}{{Smith, Tanabe, Ando, Kuo, Chung, Hsu, Lin, Klinger, Friedrich, Ganchev, Torii, Liu, Haddow, Struble, Povinelli, Vlachos, A., Hunter, Carpenter, Tsai, Dai, Liu, Chen, Sun, Katrenko, Adriaans, Blaschke, Perez, Neves, Nakov, Divoli, Mana, Mata-Vazquez, and Wilbur}}}
\bibcite{sogaard2011semisupervised}{{14}{2011}{{S{\o }gaard}}{{}}}
\bibcite{k2008unsupervised}{{15}{2008}{{Srivastava}}{{}}}
\bibcite{toutanova2003feature}{{16}{2003}{{Toutanova et~al.}}{{Toutanova, Klein, Manning, and Singer}}}
\bibcite{BioCreativeI:2005}{{17}{2005}{{Yeh et~al.}}{{Yeh, Morgan, Colosimo, and Hirschman}}}
